1	#STARENA33_STARENA33NPC_TXT_000001#	1	453	9	8200,4500	8200,4500	-90	#CALCULATE_EXP_AND_LEVEL_LUA_000032#	88	0	arena_talk03	0
2	#STARENA13_STARENA13NPC_TXT_000002#	1	70	9	4200,6300	4200,6300	0	#CALCULATE_EXP_AND_LEVEL_LUA_000032#	88	0	John_talk02	0
3	#STARENA13_STARENA13NPC_TXT_000003#	1	424	0	8200,4600	8200,4600	0	#CALCULATE_EXP_AND_LEVEL_LUA_000032#	1	0	JingJi_talk01	0
