//id	level	success_rate	requirement_1	requirement_2	requirement_3	requirement_4	requirement_5	requirement_6	4
1	1	100	0,0	0,0	0,0	0,0	0,0	0,0	50000
2	2	100	0,0	0,0	0,0	0,0	0,0	0,0	50000
3	3	100	0,0	0,0	0,0	0,0	0,0	0,0	50000
4	4	85	0,0	0,0	0,0	0,0	0,0	0,0	50000
5	5	75	0,0	0,0	0,0	0,0	0,0	0,0	50000
6	6	65	0,0	0,0	0,0	0,0	0,0	0,0	50000
7	7	50	0,0	0,0	0,0	0,0	0,0	0,0	50000
8	7	45	0,0	0,0	0,0	0,0	0,0	0,0	50000
9	8	40	0,0	0,0	0,0	0,0	0,0	0,0	50000
10	9	35	0,0	0,0	0,0	0,0	0,0	0,0	50000
11	10	33	0,0	0,0	0,0	0,0	0,0	0,0	50000
12	0	30	0,0	0,0	0,0	0,0	0,0	0,0	50000